23
23//JUMP TO THE CODE OF LINE 1
23
46//THE CODE OF LINE 2
23
73//THE CODE OF LINE 3
23
100//THE CODE OF LINE4
23
139//JUMP TO THE CODE OF LINE 5
23
178//JUMP TO THE CODE OF LINE 6
23
215//JUMP TO THE CODE OF LINE 7
23
236//JUMP TO THE CODE OF LINE 8
23
257//JUMP TO THE CODE OF LINE 9
23
274//JUMP TO THE CODE OF LINE 10
23
301//JUMP TO THE CODE OF LINE 11
50
//LINE 0NE    -1
1    // 6 spaces
6     //AC = 6
27  //PUSH AC
23
344// space code  +1
28  //POP AC
1   //draw ?/?
47   //?/?
9
2
1//draw ?\?
92   //?\?
9
2
1    // 5 spaces
5
27
23
344//space code +1
28
23
358//end of this line  +1
24  //pop pc and return
//LINE TWO -1
1    // 6 spaces
5     //AC = 5
27  //PUSH AC
23
344// space code  +1
28  //POP AC
1   //draw ?|?
124   //?|?
9
2
1
32
9
2
1//draw ?/?
47   //?/?
9
2
1    // 5 spaces
5
27
23
344//space code +1
28
23
358//end of this line  +1
24  //pop pc and return
//LINE THREE -1
1    // 6 spaces
5     //AC =5
27  //PUSH AC
23
344// space code  +1
28  //POP AC
1   //draw ?\?
92   //?\?
9
2
1
32
9
2
1
124
9
2
1    // 5 spaces
5
27
23
344//space code +1
28
23
358//end of this line  +1
24  //pop pc and return
//LINE FOUR -1
1    // 2 spaces
2    //AC = 2
27  //PUSH AC
23
344// space code  +1
28  //POP AC
1    // 2 spaces
2    //AC = 2
27  //PUSH AC
23
363// underscore code  +1
28  //POP AC
1    // 2 spaces
2    //AC = 6
27  //PUSH AC
23
344// space code  +1
28  //POP AC
1//draw ?/?
47   //?/?
9
2
1    // 4 spaces
4
27  // PUSH AC
23
344//space code +1
28
1
95  //‘_’
9
2
1
32
9
2
23
358//end of this line  +1
24  //pop pc and return
//LINE FIVE -1
1
32
9
2
1//draw ?/?
47   //?/?
9
2
1    // 2 spaces
2    //AC = 2
27  //PUSH AC
23
344// space code  +1
28  //POP AC
1//draw ?\?
92   //?\?
9
2
1    // 5 spaces
5   //AC = 5
27  //PUSH AC
23
344// space code  +1
28  //POP AC
1//draw ?/?
47   //?/?
9
2
1 //draw ‘ ’
32   //‘ ‘
9
2
1  //draw ‘\’
92   //‘\’
9
2
23
358//end of this line  +1
24  //pop pc and return
//LINE SIX -1
1//draw ‘/’
47   //?/?
9
2
1    // 4 spaces
4   //AC = 4
27  //PUSH AC
23
344// space code  +1
28  //POP AC
1//draw ?\?
92   //?\?
9
2
1    // 3 UNDERSCORE
3   //AC = 3
27  //PUSH AC
23
363// UNDERSCORE code  +1
28  //POP AC
1//draw ?/?
47   //?/?
9
2
1    // 2 spaces
2   //AC = 2
27  //PUSH AC
23
344// space code  +1
28  //POP AC
1//draw ?/?
47   //?/?
9
2
23
358//end of this line  +1
24  //pop pc and return
//LINE SEVEN-1
1//draw ?|?
124   //?|?
9
2
1    // 10 spaces
10   //AC = 10
27  //PUSH AC
23
344// space code  +1
28  //POP AC
1//draw ?/?
47   //?/?
9
2
1//draw ? ?
32   //? ?
9
2
23
358//end of this line  +1
24  //pop pc and return
//LINE EIGHT -1
1//draw ?|?
124   //?|?
9
2
1    // 10 spaces
10   //AC = 10
27  //PUSH AC
23
344// space code  +1
28  //POP AC
1   //draw ?\?
92   //?\?
9
2
1   //draw ? ?
32   //? ?
9
2
23
358//end of this line  +1
24  //pop pc and return
//LINE NINE -1
1//draw ?|?
124   //?|?
9
2
1    // 11 spaces
11   //AC = 11
27  //PUSH AC
23
344// space code  +1
28  //POP AC
1//draw ?\?
92   //‘\’
9
2
23
358//end of this line  +1
24  //pop pc and return
//LINE TEN -1
1//draw ?\?
92   //?\?
9
2
1    // 5 spaces
5   //AC = 5
27  //PUSH AC
23
344// space code  +1
28  //POP AC
1
95// UNDERSCORE
9
2
1    // 5 spaces
5   //AC = 5
27  //PUSH AC
23
344// space code  +1
28  //POP AC
1//draw ?/?
47   //?/?
9
2
23
358//end of this line  +1
24  //pop pc and return
//LINE ELEVEN -1
1
32
9
2
1
92
9
2
1
3
27
23
363//UNDERSCORE CODE +1
28
1
47
9
2
1
32
9
2
1
92
9
2
1
3
27
23
363//UNDERSCORECODE +1
28
1
47
9
2
1
32
9
2
23
358 //end of this line  +1
24  //pop pc and return
//PRINT SPACE -1
1
1
14
6
14
1   //LOAD ? ?
32
9
2
26  //DECREMENT X
15   //AC = X
22    //REPEAT AGAIN IF AC !=0
349//START OF LOAD ? ? +1
24
//print  ENTER -1
1
10   //lf  enter?
9
2
24
// print underscore -1
1    ld 1
1 
14   CopyToX
6    LoadSpX  - get parm
14   CopyToX
1    ld _
95
9    output
2
26   decX
15   CopyFromX
22   JNE 
368//+1
24
.1000
30
